{
  "configVersion": 2,
  "packages": [
    {
      "name": "async",
      "rootUri": "file:///Users/dimasarmanu/Public/libraries/flutter/.pub-cache/hosted/pub.dartlang.org/async-2.4.1",
      "packageUri": "lib/",
      "languageVersion": "2.2"
    },
    {
      "name": "barcode_scan",
      "rootUri": "file:///Users/dimasarmanu/Public/libraries/flutter/.pub-cache/hosted/pub.dartlang.org/barcode_scan-3.0.1",
      "packageUri": "lib/",
      "languageVersion": "2.1"
    },
    {
      "name": "boolean_selector",
      "rootUri": "file:///Users/dimasarmanu/Public/libraries/flutter/.pub-cache/hosted/pub.dartlang.org/boolean_selector-2.0.0",
      "packageUri": "lib/",
      "languageVersion": "2.4"
    },
    {
      "name": "charcode",
      "rootUri": "file:///Users/dimasarmanu/Public/libraries/flutter/.pub-cache/hosted/pub.dartlang.org/charcode-1.1.3",
      "packageUri": "lib/",
      "languageVersion": "2.0"
    },
    {
      "name": "clock",
      "rootUri": "file:///Users/dimasarmanu/Public/libraries/flutter/.pub-cache/hosted/pub.dartlang.org/clock-1.0.1",
      "packageUri": "lib/",
      "languageVersion": "2.0"
    },
    {
      "name": "collection",
      "rootUri": "file:///Users/dimasarmanu/Public/libraries/flutter/.pub-cache/hosted/pub.dartlang.org/collection-1.14.12",
      "packageUri": "lib/",
      "languageVersion": "2.0"
    },
    {
      "name": "convert",
      "rootUri": "file:///Users/dimasarmanu/Public/libraries/flutter/.pub-cache/hosted/pub.dartlang.org/convert-2.1.1",
      "packageUri": "lib/",
      "languageVersion": "1.17"
    },
    {
      "name": "crypto",
      "rootUri": "file:///Users/dimasarmanu/Public/libraries/flutter/.pub-cache/hosted/pub.dartlang.org/crypto-2.1.4",
      "packageUri": "lib/",
      "languageVersion": "2.1"
    },
    {
      "name": "cupertino_icons",
      "rootUri": "file:///Users/dimasarmanu/Public/libraries/flutter/.pub-cache/hosted/pub.dartlang.org/cupertino_icons-0.1.3",
      "packageUri": "lib/",
      "languageVersion": "2.0"
    },
    {
      "name": "fake_async",
      "rootUri": "file:///Users/dimasarmanu/Public/libraries/flutter/.pub-cache/hosted/pub.dartlang.org/fake_async-1.1.0",
      "packageUri": "lib/",
      "languageVersion": "2.2"
    },
    {
      "name": "ffi",
      "rootUri": "file:///Users/dimasarmanu/Public/libraries/flutter/.pub-cache/hosted/pub.dartlang.org/ffi-0.1.3",
      "packageUri": "lib/",
      "languageVersion": "2.6"
    },
    {
      "name": "file",
      "rootUri": "file:///Users/dimasarmanu/Public/libraries/flutter/.pub-cache/hosted/pub.dartlang.org/file-5.2.1",
      "packageUri": "lib/",
      "languageVersion": "2.2"
    },
    {
      "name": "fixnum",
      "rootUri": "file:///Users/dimasarmanu/Public/libraries/flutter/.pub-cache/hosted/pub.dartlang.org/fixnum-0.10.11",
      "packageUri": "lib/",
      "languageVersion": "2.1"
    },
    {
      "name": "flutter",
      "rootUri": "file:///Users/dimasarmanu/Public/libraries/flutter/packages/flutter",
      "packageUri": "lib/",
      "languageVersion": "2.2"
    },
    {
      "name": "flutter_easyloading",
      "rootUri": "file:///Users/dimasarmanu/Public/libraries/flutter/.pub-cache/hosted/pub.dartlang.org/flutter_easyloading-1.1.4",
      "packageUri": "lib/",
      "languageVersion": "2.2"
    },
    {
      "name": "flutter_spinkit",
      "rootUri": "file:///Users/dimasarmanu/Public/libraries/flutter/.pub-cache/hosted/pub.dartlang.org/flutter_spinkit-4.1.2+1",
      "packageUri": "lib/",
      "languageVersion": "2.5"
    },
    {
      "name": "flutter_swipe_action_cell",
      "rootUri": "file:///Users/dimasarmanu/Public/libraries/flutter/.pub-cache/hosted/pub.dartlang.org/flutter_swipe_action_cell-1.1.2",
      "packageUri": "lib/",
      "languageVersion": "2.7"
    },
    {
      "name": "flutter_test",
      "rootUri": "file:///Users/dimasarmanu/Public/libraries/flutter/packages/flutter_test",
      "packageUri": "lib/",
      "languageVersion": "2.2"
    },
    {
      "name": "flutter_ticket_widget",
      "rootUri": "file:///Users/dimasarmanu/Public/libraries/flutter/.pub-cache/hosted/pub.dartlang.org/flutter_ticket_widget-0.0.1",
      "packageUri": "lib/",
      "languageVersion": "2.1"
    },
    {
      "name": "flutter_web_plugins",
      "rootUri": "file:///Users/dimasarmanu/Public/libraries/flutter/packages/flutter_web_plugins",
      "packageUri": "lib/",
      "languageVersion": "2.0"
    },
    {
      "name": "font_awesome_flutter",
      "rootUri": "file:///Users/dimasarmanu/Public/libraries/flutter/.pub-cache/hosted/pub.dartlang.org/font_awesome_flutter-8.8.1",
      "packageUri": "lib/",
      "languageVersion": "2.0"
    },
    {
      "name": "google_fonts",
      "rootUri": "file:///Users/dimasarmanu/Public/libraries/flutter/.pub-cache/hosted/pub.dartlang.org/google_fonts-1.1.0",
      "packageUri": "lib/",
      "languageVersion": "2.3"
    },
    {
      "name": "http",
      "rootUri": "file:///Users/dimasarmanu/Public/libraries/flutter/.pub-cache/hosted/pub.dartlang.org/http-0.12.2",
      "packageUri": "lib/",
      "languageVersion": "2.4"
    },
    {
      "name": "http_parser",
      "rootUri": "file:///Users/dimasarmanu/Public/libraries/flutter/.pub-cache/hosted/pub.dartlang.org/http_parser-3.1.4",
      "packageUri": "lib/",
      "languageVersion": "2.3"
    },
    {
      "name": "ingenico_printer",
      "rootUri": "../ingenico_printer",
      "packageUri": "lib/",
      "languageVersion": "2.7"
    },
    {
      "name": "intl",
      "rootUri": "file:///Users/dimasarmanu/Public/libraries/flutter/.pub-cache/hosted/pub.dartlang.org/intl-0.16.1",
      "packageUri": "lib/",
      "languageVersion": "2.5"
    },
    {
      "name": "matcher",
      "rootUri": "file:///Users/dimasarmanu/Public/libraries/flutter/.pub-cache/hosted/pub.dartlang.org/matcher-0.12.6",
      "packageUri": "lib/",
      "languageVersion": "2.2"
    },
    {
      "name": "meta",
      "rootUri": "file:///Users/dimasarmanu/Public/libraries/flutter/.pub-cache/hosted/pub.dartlang.org/meta-1.1.8",
      "packageUri": "lib/",
      "languageVersion": "1.12"
    },
    {
      "name": "path",
      "rootUri": "file:///Users/dimasarmanu/Public/libraries/flutter/.pub-cache/hosted/pub.dartlang.org/path-1.7.0",
      "packageUri": "lib/",
      "languageVersion": "2.0"
    },
    {
      "name": "path_provider",
      "rootUri": "file:///Users/dimasarmanu/Public/libraries/flutter/.pub-cache/hosted/pub.dartlang.org/path_provider-1.6.16",
      "packageUri": "lib/",
      "languageVersion": "2.1"
    },
    {
      "name": "path_provider_linux",
      "rootUri": "file:///Users/dimasarmanu/Public/libraries/flutter/.pub-cache/hosted/pub.dartlang.org/path_provider_linux-0.0.1+2",
      "packageUri": "lib/",
      "languageVersion": "2.1"
    },
    {
      "name": "path_provider_macos",
      "rootUri": "file:///Users/dimasarmanu/Public/libraries/flutter/.pub-cache/hosted/pub.dartlang.org/path_provider_macos-0.0.4+4",
      "packageUri": "lib/",
      "languageVersion": "2.1"
    },
    {
      "name": "path_provider_platform_interface",
      "rootUri": "file:///Users/dimasarmanu/Public/libraries/flutter/.pub-cache/hosted/pub.dartlang.org/path_provider_platform_interface-1.0.3",
      "packageUri": "lib/",
      "languageVersion": "2.1"
    },
    {
      "name": "path_provider_windows",
      "rootUri": "file:///Users/dimasarmanu/Public/libraries/flutter/.pub-cache/hosted/pub.dartlang.org/path_provider_windows-0.0.4+1",
      "packageUri": "lib/",
      "languageVersion": "2.1"
    },
    {
      "name": "pedantic",
      "rootUri": "file:///Users/dimasarmanu/Public/libraries/flutter/.pub-cache/hosted/pub.dartlang.org/pedantic-1.9.0",
      "packageUri": "lib/",
      "languageVersion": "2.1"
    },
    {
      "name": "platform",
      "rootUri": "file:///Users/dimasarmanu/Public/libraries/flutter/.pub-cache/hosted/pub.dartlang.org/platform-2.2.1",
      "packageUri": "lib/",
      "languageVersion": "1.24"
    },
    {
      "name": "plugin_platform_interface",
      "rootUri": "file:///Users/dimasarmanu/Public/libraries/flutter/.pub-cache/hosted/pub.dartlang.org/plugin_platform_interface-1.0.2",
      "packageUri": "lib/",
      "languageVersion": "2.1"
    },
    {
      "name": "process",
      "rootUri": "file:///Users/dimasarmanu/Public/libraries/flutter/.pub-cache/hosted/pub.dartlang.org/process-3.0.13",
      "packageUri": "lib/",
      "languageVersion": "2.0"
    },
    {
      "name": "protobuf",
      "rootUri": "file:///Users/dimasarmanu/Public/libraries/flutter/.pub-cache/hosted/pub.dartlang.org/protobuf-1.0.1",
      "packageUri": "lib/",
      "languageVersion": "2.0"
    },
    {
      "name": "shared_preferences",
      "rootUri": "file:///Users/dimasarmanu/Public/libraries/flutter/.pub-cache/hosted/pub.dartlang.org/shared_preferences-0.5.7+3",
      "packageUri": "lib/",
      "languageVersion": "2.1"
    },
    {
      "name": "shared_preferences_macos",
      "rootUri": "file:///Users/dimasarmanu/Public/libraries/flutter/.pub-cache/hosted/pub.dartlang.org/shared_preferences_macos-0.0.1+9",
      "packageUri": "lib/",
      "languageVersion": "2.1"
    },
    {
      "name": "shared_preferences_platform_interface",
      "rootUri": "file:///Users/dimasarmanu/Public/libraries/flutter/.pub-cache/hosted/pub.dartlang.org/shared_preferences_platform_interface-1.0.4",
      "packageUri": "lib/",
      "languageVersion": "2.1"
    },
    {
      "name": "shared_preferences_web",
      "rootUri": "file:///Users/dimasarmanu/Public/libraries/flutter/.pub-cache/hosted/pub.dartlang.org/shared_preferences_web-0.1.2+7",
      "packageUri": "lib/",
      "languageVersion": "2.1"
    },
    {
      "name": "sky_engine",
      "rootUri": "file:///Users/dimasarmanu/Public/libraries/flutter/bin/cache/pkg/sky_engine",
      "packageUri": "lib/",
      "languageVersion": "1.11"
    },
    {
      "name": "source_span",
      "rootUri": "file:///Users/dimasarmanu/Public/libraries/flutter/.pub-cache/hosted/pub.dartlang.org/source_span-1.7.0",
      "packageUri": "lib/",
      "languageVersion": "2.6"
    },
    {
      "name": "sprintf",
      "rootUri": "file:///Users/dimasarmanu/Public/libraries/flutter/.pub-cache/hosted/pub.dartlang.org/sprintf-4.0.2",
      "packageUri": "lib/"
    },
    {
      "name": "stack_trace",
      "rootUri": "file:///Users/dimasarmanu/Public/libraries/flutter/.pub-cache/hosted/pub.dartlang.org/stack_trace-1.9.3",
      "packageUri": "lib/",
      "languageVersion": "1.23"
    },
    {
      "name": "stream_channel",
      "rootUri": "file:///Users/dimasarmanu/Public/libraries/flutter/.pub-cache/hosted/pub.dartlang.org/stream_channel-2.0.0",
      "packageUri": "lib/",
      "languageVersion": "2.0"
    },
    {
      "name": "string_scanner",
      "rootUri": "file:///Users/dimasarmanu/Public/libraries/flutter/.pub-cache/hosted/pub.dartlang.org/string_scanner-1.0.5",
      "packageUri": "lib/",
      "languageVersion": "2.0"
    },
    {
      "name": "sunmi_flutter_print",
      "rootUri": "../sunmi_flutter_print",
      "packageUri": "lib/",
      "languageVersion": "2.1"
    },
    {
      "name": "term_glyph",
      "rootUri": "file:///Users/dimasarmanu/Public/libraries/flutter/.pub-cache/hosted/pub.dartlang.org/term_glyph-1.1.0",
      "packageUri": "lib/",
      "languageVersion": "1.8"
    },
    {
      "name": "test_api",
      "rootUri": "file:///Users/dimasarmanu/Public/libraries/flutter/.pub-cache/hosted/pub.dartlang.org/test_api-0.2.16",
      "packageUri": "lib/",
      "languageVersion": "2.7"
    },
    {
      "name": "typed_data",
      "rootUri": "file:///Users/dimasarmanu/Public/libraries/flutter/.pub-cache/hosted/pub.dartlang.org/typed_data-1.1.6",
      "packageUri": "lib/",
      "languageVersion": "2.0"
    },
    {
      "name": "uuid",
      "rootUri": "file:///Users/dimasarmanu/Public/libraries/flutter/.pub-cache/hosted/pub.dartlang.org/uuid-2.0.4",
      "packageUri": "lib/",
      "languageVersion": "2.0"
    },
    {
      "name": "vector_math",
      "rootUri": "file:///Users/dimasarmanu/Public/libraries/flutter/.pub-cache/hosted/pub.dartlang.org/vector_math-2.0.8",
      "packageUri": "lib/",
      "languageVersion": "2.0"
    },
    {
      "name": "win32",
      "rootUri": "file:///Users/dimasarmanu/Public/libraries/flutter/.pub-cache/hosted/pub.dartlang.org/win32-1.7.3",
      "packageUri": "lib/",
      "languageVersion": "2.7"
    },
    {
      "name": "xdg_directories",
      "rootUri": "file:///Users/dimasarmanu/Public/libraries/flutter/.pub-cache/hosted/pub.dartlang.org/xdg_directories-0.1.0",
      "packageUri": "lib/",
      "languageVersion": "2.3"
    },
    {
      "name": "libupos",
      "rootUri": "../",
      "packageUri": "lib/",
      "languageVersion": "2.1"
    }
  ],
  "generated": "2020-09-23T03:14:43.544065Z",
  "generator": "pub",
  "generatorVersion": "2.9.0-14.1.beta"
}
